{
  "project_info": {
    "project_number": "564464527939",
    "firebase_url": "https://school-timetable-dd344.firebaseio.com",
    "project_id": "school-timetable-dd344",
    "storage_bucket": "school-timetable-dd344.appspot.com"
  },
  "client": [
    {
      "client_info": {
        "mobilesdk_app_id": "1:564464527939:android:963564d53886f1a7",
        "android_client_info": {
          "package_name": "com.shemhazai.school.timetable"
        }
      },
      "oauth_client": [
        {
          "client_id": "564464527939-5ba073jig45t36lq3cacttu70gr4701e.apps.googleusercontent.com",
          "client_type": 1,
          "android_info": {
            "package_name": "com.shemhazai.school.timetable",
            "certificate_hash": "4a3a2f4ba810069e3b84874ec96e4228c3148d2a"
          }
        },
        {
          "client_id": "564464527939-26lurm07beuo3dej0d6c5go8h2stq687.apps.googleusercontent.com",
          "client_type": 1,
          "android_info": {
            "package_name": "com.shemhazai.school.timetable",
            "certificate_hash": "56a4e39ec545a15e1abe35de113d20f30072ed6d"
          }
        },
        {
          "client_id": "564464527939-7jffoku0kforbqalp65k7vrk1jlqepg4.apps.googleusercontent.com",
          "client_type": 3
        }
      ],
      "api_key": [
        {
          "current_key": "AIzaSyDE__jo8GTPQYP6ubA2I-l0DipOFUvWxA4"
        }
      ],
      "services": {
        "appinvite_service": {
          "other_platform_oauth_client": [
            {
              "client_id": "564464527939-7jffoku0kforbqalp65k7vrk1jlqepg4.apps.googleusercontent.com",
              "client_type": 3
            },
            {
              "client_id": "564464527939-o6psehpc5d5brm966b93mo3ris4mss1j.apps.googleusercontent.com",
              "client_type": 2,
              "ios_info": {
                "bundle_id": "com.shemhazai.school.timetable"
              }
            }
          ]
        }
      },
      "admob_app_id": "ca-app-pub-8363094052355678~2979801887"
    }
  ],
  "configuration_version": "1"
}